{
  "page": 1,
  "total_results": 328921,
  "total_pages": 16447,
  "results": {
    "It":
      {
        "vote_count": 2193,
        "id": 346364,
        "video": false,
        "vote_average": 7.4,
        "title": "It",
        "popularity": 837.54052,
        "poster_path": "/static/popular/movie_images/movie_img0.png",
        "original_language": "en",
        "original_title": "It",
        "genre_ids": [
          12,
          18,
          27
        ],
        "backdrop_path": "static/popular/cover_images/cover_img0.png",
        "adult": false,
        "overview": "In a small town in Maine, seven children known as The Losers Club come face to face with life problems, bullies and a monster that takes the shape of a clown called Pennywise.",
        "release_date": "2017-09-05"
      },
      "Minions": {
        "vote_count": 4733,
        "id": 211672,
        "video": false,
        "vote_average": 6.4,
        "title": "Minions",
        "popularity": 541.540558,
        "poster_path": "/static/popular/movie_images/movie_img1.png",
        "original_language": "en",
        "original_title": "Minions",
        "genre_ids": [
          10751,
          16,
          12,
          35
        ],
        "backdrop_path": "static/popular/cover_images/cover_img1.png",
        "adult": false,
        "overview": "Minions Stuart, Kevin and Bob are recruited by Scarlet Overkill, a super-villain who, alongside her inventor husband Herb, hatches a plot to take over the world.",
        "release_date": "2015-06-17"
      },
      "Blade Runner 2049": {
        "vote_count": 899,
        "id": 335984,
        "video": false,
        "vote_average": 7.7,
        "title": "Blade Runner 2049",
        "popularity": 454.093189,
        "poster_path": "/static/popular/movie_images/movie_img2.png",
        "original_language": "en",
        "original_title": "Blade Runner 2049",
        "genre_ids": [
          28,
          9648,
          878,
          53
        ],
        "backdrop_path": "static/popular/cover_images/cover_img2.png",
        "adult": false,
        "overview": "Thirty years after the events of the first film, a new blade runner, LAPD Officer K, unearths a long-buried secret that has the potential to plunge what's left of society into chaos. K's discovery leads him on a quest to find Rick Deckard, a former LAPD blade runner who has been missing for 30 years.",
        "release_date": "2017-10-04"
      },
      "Beauty and the Beast": {
        "vote_count": 5579,
        "id": 321612,
        "video": false,
        "vote_average": 6.8,
        "title": "Beauty and the Beast",
        "popularity": 293.897679,
        "poster_path": "/static/popular/movie_images/movie_img3.png",
        "original_language": "en",
        "original_title": "Beauty and the Beast",
        "genre_ids": [
          10751,
          14,
          10749
        ],
        "backdrop_path": "static/popular/cover_images/cover_img3.png",
        "adult": false,
        "overview": "A live-action adaptation of Disney's version of the classic 'Beauty and the Beast' tale of a cursed prince and a beautiful young woman who helps him break the spell.",
        "release_date": "2017-03-16"
      },
      "War for the Planet of the Apes": {
        "vote_count": 1815,
        "id": 281338,
        "video": false,
        "vote_average": 6.7,
        "title": "War for the Planet of the Apes",
        "popularity": 268.545565,
        "poster_path": "/static/popular/movie_images/movie_img4.png",
        "original_language": "en",
        "original_title": "War for the Planet of the Apes",
        "genre_ids": [
          18,
          878,
          10752
        ],
        "backdrop_path": "static/popular/cover_images/cover_img4.png",
        "adult": false,
        "overview": "Caesar and his apes are forced into a deadly conflict with an army of humans led by a ruthless Colonel. After the apes suffer unimaginable losses, Caesar wrestles with his darker instincts and begins his own mythic quest to avenge his kind. As the journey finally brings them face to face, Caesar and the Colonel are pitted against each other in an epic battle that will determine the fate of both their species and the future of the planet.",
        "release_date": "2017-07-11"
      },
      "Spider-Man: Homecoming": {
        "vote_count": 3894,
        "id": 315635,
        "video": false,
        "vote_average": 7.3,
        "title": "Spider-Man: Homecoming",
        "popularity": 267.495269,
        "poster_path": "/static/popular/movie_images/movie_img5.png",
        "original_language": "en",
        "original_title": "Spider-Man: Homecoming",
        "genre_ids": [
          28,
          12,
          35,
          878
        ],
        "backdrop_path": "static/popular/cover_images/cover_img5.png",
        "adult": false,
        "overview": "Following the events of Captain America: Civil War, Peter Parker, with the help of his mentor Tony Stark, tries to balance his life as an ordinary high school student in Queens, New York City, with fighting crime as his superhero alter ego Spider-Man as a new threat, the Vulture, emerges.",
        "release_date": "2017-07-05"
      },
      "Kingsman: The Golden Circle": {
        "vote_count": 733,
        "id": 343668,
        "video": false,
        "vote_average": 7.3,
        "title": "Kingsman: The Golden Circle",
        "popularity": 264.832242,
        "poster_path": "/static/popular/movie_images/movie_img6.png",
        "original_language": "en",
        "original_title": "Kingsman: The Golden Circle",
        "genre_ids": [
          28,
          12,
          35
        ],
        "backdrop_path": "static/popular/cover_images/cover_img6.png",
        "adult": false,
        "overview": "When an attack on the Kingsman headquarters takes place and a new villain rises, Eggsy and Merlin are forced to work together with the American agency known as the Statesman to save the world.",
        "release_date": "2017-09-20"
      },
      "Big Hero 6": {
        "vote_count": 6283,
        "id": 177572,
        "video": false,
        "vote_average": 7.8,
        "title": "Big Hero 6",
        "popularity": 255.723383,
        "poster_path": "/static/popular/movie_images/movie_img7.png",
        "original_language": "en",
        "original_title": "Big Hero 6",
        "genre_ids": [
          12,
          10751,
          16,
          28,
          35
        ],
        "backdrop_path": "static/popular/cover_images/cover_img7.png",
        "adult": false,
        "overview": "The special bond that develops between plus-sized inflatable robot Baymax, and prodigy Hiro Hamada, who team up with a group of friends to form a band of high-tech heroes.",
        "release_date": "2014-10-24"
      },
      "mother!": {
        "vote_count": 486,
        "id": 381283,
        "video": false,
        "vote_average": 6.9,
        "title": "mother!",
        "popularity": 219.909695,
        "poster_path": "/static/popular/movie_images/movie_img8.png",
        "original_language": "en",
        "original_title": "mother!",
        "genre_ids": [
          18,
          27
        ],
        "backdrop_path": "static/popular/cover_images/cover_img8.png",
        "adult": false,
        "overview": "A couple's relationship is tested when uninvited guests arrive at their home, disrupting their tranquil existence.",
        "release_date": "2017-09-13"
      },
      "Wonder Woman": {
        "vote_count": 5155,
        "id": 297762,
        "video": false,
        "vote_average": 7.2,
        "title": "Wonder Woman",
        "popularity": 218.181947,
        "poster_path": "/static/popular/movie_images/movie_img9.png",
        "original_language": "en",
        "original_title": "Wonder Woman",
        "genre_ids": [
          28,
          12,
          14
        ],
        "backdrop_path": "static/popular/cover_images/cover_img9.png",
        "adult": false,
        "overview": "An Amazon princess comes to the world of Man to become the greatest of the female superheroes.",
        "release_date": "2017-05-30"
      },
      "Gone Girl": {
        "vote_count": 6005,
        "id": 210577,
        "video": false,
        "vote_average": 7.9,
        "title": "Gone Girl",
        "popularity": 204.688017,
        "poster_path": "/static/popular/movie_images/movie_img10.png",
        "original_language": "en",
        "original_title": "Gone Girl",
        "genre_ids": [
          9648,
          53,
          18
        ],
        "backdrop_path": "static/popular/cover_images/cover_img10.png",
        "adult": false,
        "overview": "With his wife's disappearance having become the focus of an intense media circus, a man sees the spotlight turned on him when it's suspected that he may not be innocent.",
        "release_date": "2014-10-01"
      },
      "The Hunger Games: Mockingjay - Part 1": {
        "vote_count": 5809,
        "id": 131631,
        "video": false,
        "vote_average": 6.6,
        "title": "The Hunger Games: Mockingjay - Part 1",
        "popularity": 194.007825,
        "poster_path": "/static/popular/movie_images/movie_img11.png",
        "original_language": "en",
        "original_title": "The Hunger Games: Mockingjay - Part 1",
        "genre_ids": [
          878,
          12,
          53
        ],
        "backdrop_path": "static/popular/cover_images/cover_img11.png",
        "adult": false,
        "overview": "Katniss Everdeen reluctantly becomes the symbol of a mass rebellion against the autocratic Capitol.",
        "release_date": "2014-11-18"
      },
      "Avatar": {
        "vote_count": 12198,
        "id": 19995,
        "video": false,
        "vote_average": 7.2,
        "title": "Avatar",
        "popularity": 191.780727,
        "poster_path": "/static/popular/movie_images/movie_img12.png",
        "original_language": "en",
        "original_title": "Avatar",
        "genre_ids": [
          28,
          12,
          14,
          878
        ],
        "backdrop_path": "static/popular/cover_images/cover_img12.png",
        "adult": false,
        "overview": "In the 22nd century, a paraplegic Marine is dispatched to the moon Pandora on a unique mission, but becomes torn between following orders and protecting an alien civilization.",
        "release_date": "2009-12-10"
      },
      "Deadpool": {
        "vote_count": 11538,
        "id": 293660,
        "video": false,
        "vote_average": 7.4,
        "title": "Deadpool",
        "popularity": 183.726812,
        "poster_path": "/static/popular/movie_images/movie_img13.png",
        "original_language": "en",
        "original_title": "Deadpool",
        "genre_ids": [
          28,
          12,
          35
        ],
        "backdrop_path": "static/popular/cover_images/cover_img13.png",
        "adult": false,
        "overview": "Deadpool tells the origin story of former Special Forces operative turned mercenary Wade Wilson, who after being subjected to a rogue experiment that leaves him with accelerated healing powers, adopts the alter ego Deadpool. Armed with his new abilities and a dark, twisted sense of humor, Deadpool hunts down the man who nearly destroyed his life.",
        "release_date": "2016-02-09"
      },
      "John Wick": {
        "vote_count": 5542,
        "id": 245891,
        "video": false,
        "vote_average": 7,
        "title": "John Wick",
        "popularity": 181.707511,
        "poster_path": "/static/popular/movie_images/movie_img14.png",
        "original_language": "en",
        "original_title": "John Wick",
        "genre_ids": [
          28,
          53
        ],
        "backdrop_path": "static/popular/cover_images/cover_img14.png",
        "adult": false,
        "overview": "Ex-hitman John Wick comes out of retirement to track down the gangsters that took everything from him.",
        "release_date": "2014-10-22"
      },
      "Pulp Fiction": {
        "vote_count": 8760,
        "id": 680,
        "video": false,
        "vote_average": 8.3,
        "title": "Pulp Fiction",
        "popularity": 173.807404,
        "poster_path": "/static/popular/movie_images/movie_img15.png",
        "original_language": "en",
        "original_title": "Pulp Fiction",
        "genre_ids": [
          53,
          80
        ],
        "backdrop_path": "static/popular/cover_images/cover_img15.png",
        "adult": false,
        "overview": "A burger-loving hit man, his philosophical partner, a drug-addled gangster's moll and a washed-up boxer converge in this sprawling, comedic crime caper. Their adventures unfurl in three stories that ingeniously trip back and forth in time.",
        "release_date": "1994-09-10"
      },
      "Baby Driver": {
        "vote_count": 2201,
        "id": 339403,
        "video": false,
        "vote_average": 7.2,
        "title": "Baby Driver",
        "popularity": 172.052511,
        "poster_path": "/static/popular/movie_images/movie_img16.png",
        "original_language": "en",
        "original_title": "Baby Driver",
        "genre_ids": [
          28,
          80
        ],
        "backdrop_path": "static/popular/cover_images/cover_img16.png",
        "adult": false,
        "overview": "After being coerced into working for a crime boss, a young getaway driver finds himself taking part in a heist doomed to fail.",
        "release_date": "2017-06-28"
      },
      "Guardians of the Galaxy Vol. 2": {
        "vote_count": 4877,
        "id": 283995,
        "video": false,
        "vote_average": 7.6,
        "title": "Guardians of the Galaxy Vol. 2",
        "popularity": 168.406027,
        "poster_path": "/static/popular/movie_images/movie_img17.png",
        "original_language": "en",
        "original_title": "Guardians of the Galaxy Vol. 2",
        "genre_ids": [
          28,
          12,
          35,
          878
        ],
        "backdrop_path": "static/popular/cover_images/cover_img17.png",
        "adult": false,
        "overview": "The Guardians must fight to keep their newfound family together as they unravel the mysteries of Peter Quill's true parentage.",
        "release_date": "2017-04-19"
      },
      "Captain America: Civil War": {
        "vote_count": 7517,
        "id": 271110,
        "video": false,
        "vote_average": 7.1,
        "title": "Captain America: Civil War",
        "popularity": 167.892297,
        "poster_path": "/static/popular/movie_images/movie_img18.png",
        "original_language": "en",
        "original_title": "Captain America: Civil War",
        "genre_ids": [
          12,
          28,
          878
        ],
        "backdrop_path": "static/popular/cover_images/cover_img18.png",
        "adult": false,
        "overview": "Following the events of Age of Ultron, the collective governments of the world pass an act designed to regulate all superhuman activity. This polarizes opinion amongst the Avengers, causing two factions to side with Iron Man or Captain America, which causes an epic battle between former allies.",
        "release_date": "2016-04-27"
      },
      "Pirates of the Caribbean: Dead Men Tell No Tales": {
        "vote_count": 2886,
        "id": 166426,
        "video": false,
        "vote_average": 6.6,
        "title": "Pirates of the Caribbean: Dead Men Tell No Tales",
        "popularity": 160.445802,
        "poster_path": "/static/popular/movie_images/movie_img19.png",
        "original_language": "en",
        "original_title": "Pirates of the Caribbean: Dead Men Tell No Tales",
        "genre_ids": [
          12,
          28,
          14,
          35
        ],
        "backdrop_path": "static/popular/cover_images/cover_img19.png",
        "adult": false,
        "overview": "Thrust into an all-new paycheck, a down-on-his-luck Capt. Jack Sparrow feels the winds of ill-fortune blowing even more strongly when deadly ghost sailors led by his old nemesis, the evil Capt. Salazar, escape from the Devil's Triangle. Jack's only hope of a payout lies in seeking out the legendary Trident of Numbers, but to find it, he must forge an uneasy alliance with a reasonably intelligent and pretty astronomer and a irritating young man in the British navy.",
        "release_date": "2017-05-23"
      }
  }
}
